…
Figure 1: Visualization of how values are organized in a data frame (reproduced from R for Data Science)

Lets have a look at the data we have just read in. The most visual way to do this is by using RStudio’s data table viewer. Note the capital “V” in View() below.

View(df)

You can also get to the same thing by using the spreadsheet icon next to the data in your environment tab.

This feature allows you to scroll along your data by row and column like you would in Excel and is a great way to be able to begin exploring the data set.

If you want to view the data frame in the console then you can just type the name of the data frame into the console:

df

## # A tibble: 4,759 x 11
##    Cruise          Station   lon   lat     z  pres  temp   sal theta sigma o2   
##    <chr>             <dbl> <dbl> <dbl> <dbl> <dbl> <dbl> <dbl> <dbl> <dbl> <lgl>
##  1 SR04_06AQANTIX…      95  343. -69.1  13.9  14.0 -1.84  34.3 -1.84  27.7 NA   
##  2 SR04_06AQANTIX…      95  343. -69.1  17.8  18.0 -1.84  34.3 -1.84  27.7 NA   
##  3 SR04_06AQANTIX…      95  343. -69.1  21.8  22.0 -1.84  34.4 -1.85  27.7 NA   
##  4 SR04_06AQANTIX…      95  343. -69.1  25.7  26.0 -1.84  34.4 -1.85  27.7 NA   
##  5 SR04_06AQANTIX…      95  343. -69.1  29.7  30.0 -1.84  34.4 -1.85  27.7 NA   
##  6 SR04_06AQANTIX…      95  343. -69.1  33.7  34.0 -1.84  34.4 -1.84  27.7 NA   
##  7 SR04_06AQANTIX…      95  343. -69.1  37.6  38.0 -1.84  34.4 -1.84  27.7 NA   
##  8 SR04_06AQANTIX…      95  343. -69.1  41.6  42.0 -1.84  34.4 -1.84  27.7 NA   
##  9 SR04_06AQANTIX…      95  343. -69.1  45.5  46.0 -1.84  34.4 -1.84  27.7 NA   
## 10 SR04_06AQANTIX…      95  343. -69.1  49.5  50.0 -1.83  34.4 -1.83  27.7 NA   
## # … with 4,749 more rows
…
